1
double epsilon =2.22045e-16
float epsilon =1.19209e-07
double epsilon =1.0842e-19
double epsilon =2.22045e-16
long double epsilon =1.0842e-19
float epsilon =1.19209e-07
double epsilon=2.22045e-16
long double spsilon=1.0842e-19
float epsilon=1.19209e-07
sum_up_float=15.4037
sum_down_float=18.8079
sum_up_double=20.9662
sum_down_double=20.9662
