<?xml version="1.0" encoding="utf-8"  standalone="no"?>
<!DOCTYPE svg PUBLIC "-//W3C//DTD SVG 1.1//EN"
 "http://www.w3.org/Graphics/SVG/1.1/DTD/svg11.dtd">
<svg 
 width="600" height="480"
 viewBox="0 0 600 480"
 xmlns="http://www.w3.org/2000/svg"
 xmlns:xlink="http://www.w3.org/1999/xlink"
>

<title>Gnuplot</title>
<desc>Produced by GNUPLOT 5.0 patchlevel 3 </desc>

<g id="gnuplot_canvas">

<rect x="0" y="0" width="600" height="480" fill="#ffffff"/>
<defs>

	<circle id='gpDot' r='0.5' stroke-width='0.5'/>
	<path id='gpPt0' stroke-width='0.222' stroke='currentColor' d='M-1,0 h2 M0,-1 v2'/>
	<path id='gpPt1' stroke-width='0.222' stroke='currentColor' d='M-1,-1 L1,1 M1,-1 L-1,1'/>
	<path id='gpPt2' stroke-width='0.222' stroke='currentColor' d='M-1,0 L1,0 M0,-1 L0,1 M-1,-1 L1,1 M-1,1 L1,-1'/>
	<rect id='gpPt3' stroke-width='0.222' stroke='currentColor' x='-1' y='-1' width='2' height='2'/>
	<rect id='gpPt4' stroke-width='0.222' stroke='currentColor' fill='currentColor' x='-1' y='-1' width='2' height='2'/>
	<circle id='gpPt5' stroke-width='0.222' stroke='currentColor' cx='0' cy='0' r='1'/>
	<use xlink:href='#gpPt5' id='gpPt6' fill='currentColor' stroke='none'/>
	<path id='gpPt7' stroke-width='0.222' stroke='currentColor' d='M0,-1.33 L-1.33,0.67 L1.33,0.67 z'/>
	<use xlink:href='#gpPt7' id='gpPt8' fill='currentColor' stroke='none'/>
	<use xlink:href='#gpPt7' id='gpPt9' stroke='currentColor' transform='rotate(180)'/>
	<use xlink:href='#gpPt9' id='gpPt10' fill='currentColor' stroke='none'/>
	<use xlink:href='#gpPt3' id='gpPt11' stroke='currentColor' transform='rotate(45)'/>
	<use xlink:href='#gpPt11' id='gpPt12' fill='currentColor' stroke='none'/>
	<path id='gpPt13' stroke-width='0.222' stroke='currentColor' d='M0,1.330 L1.265,0.411 L0.782,-1.067 L-0.782,-1.076 L-1.265,0.411 z'/>
	<use xlink:href='#gpPt13' id='gpPt14' fill='currentColor' stroke='none'/>
	<filter id='textbox' filterUnits='objectBoundingBox' x='0' y='0' height='1' width='1'>
	  <feFlood flood-color='#FFFFFF' flood-opacity='1' result='bgnd'/>
	  <feComposite in='SourceGraphic' in2='bgnd' operator='atop'/>
	</filter>
	<filter id='greybox' filterUnits='objectBoundingBox' x='0' y='0' height='1' width='1'>
	  <feFlood flood-color='lightgrey' flood-opacity='1' result='grey'/>
	  <feComposite in='SourceGraphic' in2='grey' operator='atop'/>
	</filter>
</defs>
<g fill="none" color="#FFFFFF" stroke="black" stroke-width="1.00" stroke-linecap="butt" stroke-linejoin="miter">
</g>
<g fill="none" color="black" stroke="currentColor" stroke-width="1.00" stroke-linecap="butt" stroke-linejoin="miter">
</g>
<g fill="none" color="black" stroke="black" stroke-width="0.50" stroke-linecap="butt" stroke-linejoin="miter">
</g>
<g fill="none" color="gray" stroke="currentColor" stroke-width="0.50" stroke-linecap="butt" stroke-linejoin="miter">
	<path stroke='gray' stroke-dasharray='2,4' class="gridline"  d='M71.9,422.4 L575.0,422.4  '/></g>
<g fill="none" color="gray" stroke="gray" stroke-width="1.00" stroke-linecap="butt" stroke-linejoin="miter">
</g>
<g fill="none" color="black" stroke="currentColor" stroke-width="1.00" stroke-linecap="butt" stroke-linejoin="miter">
	<path stroke='black'  d='M71.9,422.4 L80.9,422.4 M575.0,422.4 L566.0,422.4  '/>	<g transform="translate(63.6,426.9)" stroke="none" fill="black" font-family="Arial" font-size="12.00"  text-anchor="end">
		<text><tspan font-family="Arial" >-1.5</tspan></text>
	</g>
</g>
<g fill="none" color="black" stroke="currentColor" stroke-width="1.00" stroke-linecap="butt" stroke-linejoin="miter">
</g>
<g fill="none" color="black" stroke="black" stroke-width="0.50" stroke-linecap="butt" stroke-linejoin="miter">
</g>
<g fill="none" color="gray" stroke="currentColor" stroke-width="0.50" stroke-linecap="butt" stroke-linejoin="miter">
	<path stroke='gray' stroke-dasharray='2,4' class="gridline"  d='M71.9,361.0 L575.0,361.0  '/></g>
<g fill="none" color="gray" stroke="gray" stroke-width="1.00" stroke-linecap="butt" stroke-linejoin="miter">
</g>
<g fill="none" color="black" stroke="currentColor" stroke-width="1.00" stroke-linecap="butt" stroke-linejoin="miter">
	<path stroke='black'  d='M71.9,361.0 L80.9,361.0 M575.0,361.0 L566.0,361.0  '/>	<g transform="translate(63.6,365.5)" stroke="none" fill="black" font-family="Arial" font-size="12.00"  text-anchor="end">
		<text><tspan font-family="Arial" >-1</tspan></text>
	</g>
</g>
<g fill="none" color="black" stroke="currentColor" stroke-width="1.00" stroke-linecap="butt" stroke-linejoin="miter">
</g>
<g fill="none" color="black" stroke="black" stroke-width="0.50" stroke-linecap="butt" stroke-linejoin="miter">
</g>
<g fill="none" color="gray" stroke="currentColor" stroke-width="0.50" stroke-linecap="butt" stroke-linejoin="miter">
	<path stroke='gray' stroke-dasharray='2,4' class="gridline"  d='M71.9,299.6 L575.0,299.6  '/></g>
<g fill="none" color="gray" stroke="gray" stroke-width="1.00" stroke-linecap="butt" stroke-linejoin="miter">
</g>
<g fill="none" color="black" stroke="currentColor" stroke-width="1.00" stroke-linecap="butt" stroke-linejoin="miter">
	<path stroke='black'  d='M71.9,299.6 L80.9,299.6 M575.0,299.6 L566.0,299.6  '/>	<g transform="translate(63.6,304.1)" stroke="none" fill="black" font-family="Arial" font-size="12.00"  text-anchor="end">
		<text><tspan font-family="Arial" >-0.5</tspan></text>
	</g>
</g>
<g fill="none" color="black" stroke="currentColor" stroke-width="1.00" stroke-linecap="butt" stroke-linejoin="miter">
</g>
<g fill="none" color="black" stroke="black" stroke-width="0.50" stroke-linecap="butt" stroke-linejoin="miter">
</g>
<g fill="none" color="gray" stroke="currentColor" stroke-width="0.50" stroke-linecap="butt" stroke-linejoin="miter">
	<path stroke='gray' stroke-dasharray='2,4' class="gridline"  d='M71.9,238.2 L575.0,238.2  '/></g>
<g fill="none" color="gray" stroke="gray" stroke-width="1.00" stroke-linecap="butt" stroke-linejoin="miter">
</g>
<g fill="none" color="black" stroke="currentColor" stroke-width="1.00" stroke-linecap="butt" stroke-linejoin="miter">
	<path stroke='black'  d='M71.9,238.2 L80.9,238.2 M575.0,238.2 L566.0,238.2  '/>	<g transform="translate(63.6,242.7)" stroke="none" fill="black" font-family="Arial" font-size="12.00"  text-anchor="end">
		<text><tspan font-family="Arial" > 0</tspan></text>
	</g>
</g>
<g fill="none" color="black" stroke="currentColor" stroke-width="1.00" stroke-linecap="butt" stroke-linejoin="miter">
</g>
<g fill="none" color="black" stroke="black" stroke-width="0.50" stroke-linecap="butt" stroke-linejoin="miter">
</g>
<g fill="none" color="gray" stroke="currentColor" stroke-width="0.50" stroke-linecap="butt" stroke-linejoin="miter">
	<path stroke='gray' stroke-dasharray='2,4' class="gridline"  d='M71.9,176.9 L575.0,176.9  '/></g>
<g fill="none" color="gray" stroke="gray" stroke-width="1.00" stroke-linecap="butt" stroke-linejoin="miter">
</g>
<g fill="none" color="black" stroke="currentColor" stroke-width="1.00" stroke-linecap="butt" stroke-linejoin="miter">
	<path stroke='black'  d='M71.9,176.9 L80.9,176.9 M575.0,176.9 L566.0,176.9  '/>	<g transform="translate(63.6,181.4)" stroke="none" fill="black" font-family="Arial" font-size="12.00"  text-anchor="end">
		<text><tspan font-family="Arial" > 0.5</tspan></text>
	</g>
</g>
<g fill="none" color="black" stroke="currentColor" stroke-width="1.00" stroke-linecap="butt" stroke-linejoin="miter">
</g>
<g fill="none" color="black" stroke="black" stroke-width="0.50" stroke-linecap="butt" stroke-linejoin="miter">
</g>
<g fill="none" color="gray" stroke="currentColor" stroke-width="0.50" stroke-linecap="butt" stroke-linejoin="miter">
	<path stroke='gray' stroke-dasharray='2,4' class="gridline"  d='M71.9,115.5 L575.0,115.5  '/></g>
<g fill="none" color="gray" stroke="gray" stroke-width="1.00" stroke-linecap="butt" stroke-linejoin="miter">
</g>
<g fill="none" color="black" stroke="currentColor" stroke-width="1.00" stroke-linecap="butt" stroke-linejoin="miter">
	<path stroke='black'  d='M71.9,115.5 L80.9,115.5 M575.0,115.5 L566.0,115.5  '/>	<g transform="translate(63.6,120.0)" stroke="none" fill="black" font-family="Arial" font-size="12.00"  text-anchor="end">
		<text><tspan font-family="Arial" > 1</tspan></text>
	</g>
</g>
<g fill="none" color="black" stroke="currentColor" stroke-width="1.00" stroke-linecap="butt" stroke-linejoin="miter">
</g>
<g fill="none" color="black" stroke="black" stroke-width="0.50" stroke-linecap="butt" stroke-linejoin="miter">
</g>
<g fill="none" color="gray" stroke="currentColor" stroke-width="0.50" stroke-linecap="butt" stroke-linejoin="miter">
	<path stroke='gray' stroke-dasharray='2,4' class="gridline"  d='M71.9,54.1 L575.0,54.1  '/></g>
<g fill="none" color="gray" stroke="gray" stroke-width="1.00" stroke-linecap="butt" stroke-linejoin="miter">
</g>
<g fill="none" color="black" stroke="currentColor" stroke-width="1.00" stroke-linecap="butt" stroke-linejoin="miter">
	<path stroke='black'  d='M71.9,54.1 L80.9,54.1 M575.0,54.1 L566.0,54.1  '/>	<g transform="translate(63.6,58.6)" stroke="none" fill="black" font-family="Arial" font-size="12.00"  text-anchor="end">
		<text><tspan font-family="Arial" > 1.5</tspan></text>
	</g>
</g>
<g fill="none" color="black" stroke="currentColor" stroke-width="1.00" stroke-linecap="butt" stroke-linejoin="miter">
</g>
<g fill="none" color="black" stroke="black" stroke-width="0.50" stroke-linecap="butt" stroke-linejoin="miter">
</g>
<g fill="none" color="gray" stroke="currentColor" stroke-width="0.50" stroke-linecap="butt" stroke-linejoin="miter">
	<path stroke='gray' stroke-dasharray='2,4' class="gridline"  d='M71.9,422.4 L71.9,54.1  '/></g>
<g fill="none" color="gray" stroke="gray" stroke-width="1.00" stroke-linecap="butt" stroke-linejoin="miter">
</g>
<g fill="none" color="black" stroke="currentColor" stroke-width="1.00" stroke-linecap="butt" stroke-linejoin="miter">
	<path stroke='black'  d='M71.9,422.4 L71.9,413.4 M71.9,54.1 L71.9,63.1  '/>	<g transform="translate(71.9,444.9)" stroke="none" fill="black" font-family="Arial" font-size="12.00"  text-anchor="middle">
		<text><tspan font-family="Arial" >-1</tspan></text>
	</g>
</g>
<g fill="none" color="black" stroke="currentColor" stroke-width="1.00" stroke-linecap="butt" stroke-linejoin="miter">
</g>
<g fill="none" color="black" stroke="black" stroke-width="0.50" stroke-linecap="butt" stroke-linejoin="miter">
</g>
<g fill="none" color="gray" stroke="currentColor" stroke-width="0.50" stroke-linecap="butt" stroke-linejoin="miter">
	<path stroke='gray' stroke-dasharray='2,4' class="gridline"  d='M155.8,422.4 L155.8,81.1 M155.8,63.1 L155.8,54.1  '/></g>
<g fill="none" color="gray" stroke="gray" stroke-width="1.00" stroke-linecap="butt" stroke-linejoin="miter">
</g>
<g fill="none" color="black" stroke="currentColor" stroke-width="1.00" stroke-linecap="butt" stroke-linejoin="miter">
	<path stroke='black'  d='M155.8,422.4 L155.8,413.4 M155.8,54.1 L155.8,63.1  '/>	<g transform="translate(155.8,444.9)" stroke="none" fill="black" font-family="Arial" font-size="12.00"  text-anchor="middle">
		<text><tspan font-family="Arial" >-0.5</tspan></text>
	</g>
</g>
<g fill="none" color="black" stroke="currentColor" stroke-width="1.00" stroke-linecap="butt" stroke-linejoin="miter">
</g>
<g fill="none" color="black" stroke="black" stroke-width="0.50" stroke-linecap="butt" stroke-linejoin="miter">
</g>
<g fill="none" color="gray" stroke="currentColor" stroke-width="0.50" stroke-linecap="butt" stroke-linejoin="miter">
	<path stroke='gray' stroke-dasharray='2,4' class="gridline"  d='M239.6,422.4 L239.6,54.1  '/></g>
<g fill="none" color="gray" stroke="gray" stroke-width="1.00" stroke-linecap="butt" stroke-linejoin="miter">
</g>
<g fill="none" color="black" stroke="currentColor" stroke-width="1.00" stroke-linecap="butt" stroke-linejoin="miter">
	<path stroke='black'  d='M239.6,422.4 L239.6,413.4 M239.6,54.1 L239.6,63.1  '/>	<g transform="translate(239.6,444.9)" stroke="none" fill="black" font-family="Arial" font-size="12.00"  text-anchor="middle">
		<text><tspan font-family="Arial" > 0</tspan></text>
	</g>
</g>
<g fill="none" color="black" stroke="currentColor" stroke-width="1.00" stroke-linecap="butt" stroke-linejoin="miter">
</g>
<g fill="none" color="black" stroke="black" stroke-width="0.50" stroke-linecap="butt" stroke-linejoin="miter">
</g>
<g fill="none" color="gray" stroke="currentColor" stroke-width="0.50" stroke-linecap="butt" stroke-linejoin="miter">
	<path stroke='gray' stroke-dasharray='2,4' class="gridline"  d='M323.5,422.4 L323.5,54.1  '/></g>
<g fill="none" color="gray" stroke="gray" stroke-width="1.00" stroke-linecap="butt" stroke-linejoin="miter">
</g>
<g fill="none" color="black" stroke="currentColor" stroke-width="1.00" stroke-linecap="butt" stroke-linejoin="miter">
	<path stroke='black'  d='M323.5,422.4 L323.5,413.4 M323.5,54.1 L323.5,63.1  '/>	<g transform="translate(323.5,444.9)" stroke="none" fill="black" font-family="Arial" font-size="12.00"  text-anchor="middle">
		<text><tspan font-family="Arial" > 0.5</tspan></text>
	</g>
</g>
<g fill="none" color="black" stroke="currentColor" stroke-width="1.00" stroke-linecap="butt" stroke-linejoin="miter">
</g>
<g fill="none" color="black" stroke="black" stroke-width="0.50" stroke-linecap="butt" stroke-linejoin="miter">
</g>
<g fill="none" color="gray" stroke="currentColor" stroke-width="0.50" stroke-linecap="butt" stroke-linejoin="miter">
	<path stroke='gray' stroke-dasharray='2,4' class="gridline"  d='M407.3,422.4 L407.3,54.1  '/></g>
<g fill="none" color="gray" stroke="gray" stroke-width="1.00" stroke-linecap="butt" stroke-linejoin="miter">
</g>
<g fill="none" color="black" stroke="currentColor" stroke-width="1.00" stroke-linecap="butt" stroke-linejoin="miter">
	<path stroke='black'  d='M407.3,422.4 L407.3,413.4 M407.3,54.1 L407.3,63.1  '/>	<g transform="translate(407.3,444.9)" stroke="none" fill="black" font-family="Arial" font-size="12.00"  text-anchor="middle">
		<text><tspan font-family="Arial" > 1</tspan></text>
	</g>
</g>
<g fill="none" color="black" stroke="currentColor" stroke-width="1.00" stroke-linecap="butt" stroke-linejoin="miter">
</g>
<g fill="none" color="black" stroke="black" stroke-width="0.50" stroke-linecap="butt" stroke-linejoin="miter">
</g>
<g fill="none" color="gray" stroke="currentColor" stroke-width="0.50" stroke-linecap="butt" stroke-linejoin="miter">
	<path stroke='gray' stroke-dasharray='2,4' class="gridline"  d='M491.2,422.4 L491.2,54.1  '/></g>
<g fill="none" color="gray" stroke="gray" stroke-width="1.00" stroke-linecap="butt" stroke-linejoin="miter">
</g>
<g fill="none" color="black" stroke="currentColor" stroke-width="1.00" stroke-linecap="butt" stroke-linejoin="miter">
	<path stroke='black'  d='M491.2,422.4 L491.2,413.4 M491.2,54.1 L491.2,63.1  '/>	<g transform="translate(491.2,444.9)" stroke="none" fill="black" font-family="Arial" font-size="12.00"  text-anchor="middle">
		<text><tspan font-family="Arial" > 1.5</tspan></text>
	</g>
</g>
<g fill="none" color="black" stroke="currentColor" stroke-width="1.00" stroke-linecap="butt" stroke-linejoin="miter">
</g>
<g fill="none" color="black" stroke="black" stroke-width="0.50" stroke-linecap="butt" stroke-linejoin="miter">
</g>
<g fill="none" color="gray" stroke="currentColor" stroke-width="0.50" stroke-linecap="butt" stroke-linejoin="miter">
	<path stroke='gray' stroke-dasharray='2,4' class="gridline"  d='M575.0,422.4 L575.0,54.1  '/></g>
<g fill="none" color="gray" stroke="gray" stroke-width="1.00" stroke-linecap="butt" stroke-linejoin="miter">
</g>
<g fill="none" color="black" stroke="currentColor" stroke-width="1.00" stroke-linecap="butt" stroke-linejoin="miter">
	<path stroke='black'  d='M575.0,422.4 L575.0,413.4 M575.0,54.1 L575.0,63.1  '/>	<g transform="translate(575.0,444.9)" stroke="none" fill="black" font-family="Arial" font-size="12.00"  text-anchor="middle">
		<text><tspan font-family="Arial" > 2</tspan></text>
	</g>
</g>
<g fill="none" color="black" stroke="currentColor" stroke-width="1.00" stroke-linecap="butt" stroke-linejoin="miter">
</g>
<g fill="none" color="black" stroke="currentColor" stroke-width="1.00" stroke-linecap="butt" stroke-linejoin="miter">
	<path stroke='black'  d='M71.9,54.1 L71.9,422.4 L575.0,422.4 L575.0,54.1 L71.9,54.1 Z  '/></g>
<g fill="none" color="black" stroke="currentColor" stroke-width="1.00" stroke-linecap="butt" stroke-linejoin="miter">
	<g transform="translate(17.6,238.3) rotate(270)" stroke="none" fill="black" font-family="Arial" font-size="12.00"  text-anchor="middle">
		<text><tspan font-family="Arial" >y</tspan></text>
	</g>
</g>
<g fill="none" color="black" stroke="currentColor" stroke-width="1.00" stroke-linecap="butt" stroke-linejoin="miter">
	<g transform="translate(323.4,471.9)" stroke="none" fill="black" font-family="Arial" font-size="12.00"  text-anchor="middle">
		<text><tspan font-family="Arial" >x</tspan></text>
	</g>
</g>
<g fill="none" color="black" stroke="currentColor" stroke-width="1.00" stroke-linecap="butt" stroke-linejoin="miter">
	<g transform="translate(323.4,31.6)" stroke="none" fill="black" font-family="Arial" font-size="12.00"  text-anchor="middle">
		<text><tspan font-family="Arial" >eliptical orbit</tspan></text>
	</g>
</g>
	<g id="gnuplot_plot_1" ><title>gnuplot_plot_1</title>
<g fill="none" color="black" stroke="currentColor" stroke-width="1.00" stroke-linecap="butt" stroke-linejoin="miter">
	<path stroke='rgb(148,   0, 211)'  d='M239.6,115.5 L248.2,112.5 L257.2,109.7 L266.7,107.1 L276.6,104.7 L286.9,102.5 L297.8,100.6 L309.0,99.1
		L320.7,97.8 L332.8,97.0 L345.3,96.5 L358.3,96.6 L371.5,97.1 L385.1,98.1 L399.0,99.7 L413.0,102.0
		L427.2,104.9 L441.4,108.5 L455.5,112.8 L469.5,117.9 L483.2,123.7 L496.5,130.4 L509.2,137.8 L521.2,146.0
		L532.3,154.9 L542.4,164.6 L551.4,174.9 L559.1,185.8 L565.4,197.1 L570.1,208.9 L573.3,220.9 L574.9,233.1
		L574.7,245.4 L572.9,257.6 L569.5,269.6 L564.4,281.3 L557.9,292.6 L550.0,303.4 L540.8,313.6 L530.5,323.1
		L519.2,331.9 L507.1,340.0 L494.3,347.3 L480.9,353.8 L467.2,359.5 L453.2,364.5 L439.0,368.7 L424.8,372.2
		L410.6,374.9 L396.6,377.1 L382.8,378.6 L369.3,379.6 L356.1,380.0 L343.2,379.9 L330.7,379.4 L318.7,378.5
		L307.1,377.2 L295.9,375.6 L285.2,373.6 L274.9,371.5 L265.1,369.0 L255.7,366.4 L246.7,363.5 L238.2,360.5
		L230.1,357.3 L222.4,354.0 L215.1,350.6 L208.2,347.1 L201.6,343.5 L195.4,339.8 L189.6,336.1 L184.0,332.3
		L178.8,328.4 L173.9,324.5 L169.4,320.6 L165.1,316.6 L161.0,312.6 L157.3,308.6 L153.8,304.6 L150.5,300.5
		L147.5,296.5 L144.8,292.4 L142.2,288.3 L139.9,284.3 L137.8,280.2 L135.9,276.1 L134.2,272.0 L132.7,267.9
		L131.5,263.8 L130.4,259.7 L129.5,255.6 L128.8,251.5 L128.3,247.4 L127.9,243.4 L127.8,239.3 L127.9,235.2
		L128.1,231.1 L128.5,227.0 L129.1,222.9 L129.9,218.8 L130.9,214.7 L132.1,210.6 L133.5,206.5 L135.1,202.4
		L136.8,198.4 L138.8,194.3 L141.0,190.2 L143.5,186.1 L146.1,182.0 L149.0,178.0 L152.1,173.9 L155.5,169.9
		L159.1,165.9 L163.0,161.9 L167.2,157.9 L171.6,153.9 L176.4,150.0 L181.4,146.2 L186.8,142.3 L192.5,138.5
		L198.5,134.8 L204.9,131.2 L211.6,127.6 L218.7,124.1 L226.2,120.8 L234.1,117.6 L242.4,114.5 L251.2,111.5
		L260.4,108.8 L270.0,106.2 L280.0,103.9 L290.5,101.8 L301.5,100.1 L312.9,98.6 L324.7,97.5 L337.0,96.8
		L349.7,96.5 L362.7,96.7 L376.1,97.4 L389.8,98.6 L403.7,100.4 L417.8,102.9 L432.0,106.0 L446.2,109.9
		L460.3,114.4 L474.2,119.8 L487.7,125.9 L500.8,132.8 L513.3,140.5 L525.0,148.9 L535.8,158.1 L545.6,168.0
		L554.1,178.5 L561.4,189.5 L567.2,201.0 L571.4,212.9 L574.0,225.0 L575.0,237.3 L574.3,249.5 L571.9,261.7
		L567.9,273.6 L562.4,285.2 L555.4,296.3 L547.0,306.9 L537.5,316.9 L526.8,326.2 L515.2,334.7 L502.9,342.5
		L489.8,349.6 L476.3,355.8 L462.5,361.3 L448.4,366.0 L434.2,369.9 L420.0,373.2 L405.9,375.7 L392.0,377.7
		L378.2,379.0 L364.8,379.8 L351.7,380.0 L339.0,379.8 L326.6,379.1 L314.7,378.1 L303.3,376.7 L292.2,375.0
		L281.7,372.9 L271.5,370.7 L261.9,368.1 L252.6,365.4 L243.8,362.5 L235.4,359.4 L227.5,356.2 L219.9,352.9
		L212.7,349.4 L205.9,345.9 L199.5,342.3 L193.4,338.6 L187.7,334.8 L182.2,331.0 L177.2,327.1 L172.4,323.2
		L167.9,319.2 L163.7,315.3 L159.7,311.3 L156.1,307.2 L152.7,303.2 L149.5,299.2 L146.6,295.1 L143.9,291.0
		L141.4,287.0 L139.2,282.9 L137.1,278.8 L135.3,274.7 L133.7,270.6 L132.3,266.5 L131.1,262.4 L130.1,258.3
		L129.2,254.3 L128.6,250.2 L128.1,246.1 L127.9,242.0 L127.8,237.9 L127.9,233.8 L128.2,229.7 L128.7,225.6
		L129.4,221.5 L130.2,217.4 L131.3,213.3 L132.5,209.2 L134.0,205.2 L135.6,201.1 L137.5,197.0 L139.6,192.9
		L141.8,188.8 L144.3,184.7 L147.1,180.7 L150.0,176.6 L153.2,172.6 L156.7,168.5 L160.4,164.5 L164.4,160.5
		L168.7,156.6 L173.2,152.6 L178.0,148.7 L183.2,144.9 L188.7,141.0 L194.4,137.3 L200.6,133.6 L207.1,130.0
		L214.0,126.4 L221.2,123.0 L228.8,119.7 L236.9,116.5 L245.3,113.5 L254.2,110.6 L263.5,107.9 L273.3,105.4
		L283.5,103.2 L294.2,101.2 L305.3,99.5 L316.8,98.2 L328.8,97.2 L341.2,96.6 L354.0,96.5 L367.2,96.8
		L380.6,97.7 L394.4,99.1 L408.4,101.2 L422.5,103.9 L436.7,107.2 L450.9,111.3 L465.0,116.1 L478.8,121.7
		L492.2,128.1 L505.1,135.3 L517.3,143.2 L528.8,151.9 L539.2,161.4 L548.6,171.4 L556.7,182.1 L563.5,193.3
		L568.8,205.0 L572.5,217.0 L574.5,229.1 L574.9,241.4 L573.7,253.6 L570.8,265.7 L566.2,277.5 L560.2,289.0
		L552.7,299.9 L544.0,310.3 L534.0,320.1 L523.0,329.1 L511.1,337.4 L498.5,345.0 L485.4,351.8 L471.7,357.7
		L457.8,362.9 L443.7,367.4 L429.4,371.1 L415.3,374.1 L401.2,376.4 L387.3,378.2 L373.7,379.3 L360.4,379.9
		L347.4,380.0 L334.8,379.6 L322.6,378.8 L310.8,377.7 L299.5,376.1 L288.6,374.3 L278.2,372.2 L268.2,369.8
		L258.7,367.3 L249.6,364.5 L240.9,361.5 L232.7,358.4 L224.9,355.1 L217.4,351.7 L210.4,348.3 L203.7,344.7
		L197.4,341.0 L191.4,337.3 L185.8,333.5 L180.5,329.7 L175.5,325.8 L170.8,321.9 L166.4,317.9 L162.3,313.9
		L158.5,309.9 L154.9,305.9 L151.6,301.8 L148.5,297.8 L145.6,293.7 L143.0,289.7 L140.6,285.6 L138.5,281.5
		L136.5,277.4 L134.8,273.3 L133.2,269.2 L131.9,265.2 L130.7,261.1 L129.8,257.0 L129.0,252.9 L128.4,248.8
		L128.0,244.7 L127.8,240.6 L127.8,236.5 L128.0,232.4 L128.3,228.3 L128.9,224.2 L129.6,220.1 L130.6,216.1
		L131.7,212.0 L133.0,207.9 L134.5,203.8 L136.2,199.7 L138.2,195.6 L140.3,191.5 L142.7,187.4 L145.2,183.4
		L148.0,179.3 L151.1,175.3 L154.4,171.2 L157.9,167.2 L161.7,163.2 L165.8,159.2 L170.1,155.2 L174.8,151.3
		L179.7,147.4 L185.0,143.6 L190.6,139.8 L196.5,136.0 L202.7,132.4 L209.4,128.8 L216.3,125.3 L223.7,121.9
		L231.5,118.6 L239.7,115.5 L248.3,112.5 L257.3,109.7 L266.8,107.0 L276.7,104.6 L287.0,102.5 L297.8,100.6
		L309.1,99.1 L320.8,97.8 L332.9,97.0 L345.5,96.5 L358.4,96.6 L371.7,97.1 L385.2,98.1 L399.1,99.8
		L413.1,102.0 L427.3,104.9 L441.5,108.5 L455.7,112.8 L469.6,117.9 L483.3,123.8 L496.6,130.4 L509.3,137.9
		L521.3,146.1 L532.4,155.0 L542.5,164.7 L551.5,175.0 L559.2,185.8 L565.4,197.2 L570.2,209.0 L573.3,221.0
		L574.9,233.3 L574.7,245.5 L572.9,257.7 L569.4,269.7 L564.4,281.4 L557.8,292.7 L549.9,303.5 L540.7,313.7
		L530.4,323.2 L519.1,332.0 L507.0,340.1 L494.2,347.4 L480.8,353.9 L467.1,359.6 L453.0,364.5 L438.9,368.7
		L424.7,372.2 L410.5,375.0 L396.5,377.1 L382.7,378.6 L369.2,379.6 L356.0,380.0 L343.1,379.9 L330.6,379.4
		L318.6,378.5 L307.0,377.2 L295.8,375.6 L285.1,373.6 L274.8,371.4 L265.0,369.0 L255.6,366.3 L246.6,363.5
		L238.1,360.5 L230.0,357.3 L222.3,354.0 L215.0,350.6 L208.1,347.1 L201.5,343.5 L195.4,339.8 L189.5,336.0
		L184.0,332.2 L178.8,328.4 L173.9,324.5 L169.3,320.5 L165.0,316.6 L161.0,312.6 L157.2,308.6 L153.7,304.5
		L150.5,300.5 L147.5,296.4 L144.7,292.4 L142.2,288.3 L139.9,284.2 L137.8,280.1 L135.9,276.0 L134.2,272.0
		L132.7,267.9 L131.5,263.8 L130.4,259.7 L129.5,255.6 L128.8,251.5 L128.3,247.4 L127.9,243.3 L127.8,239.2
		L127.9,235.1 L128.1,231.0 L128.5,227.0 L129.1,222.9 L129.9,218.8 L130.9,214.7 L132.1,210.6 L133.5,206.5
		L135.1,202.4 L136.9,198.3 L138.9,194.2 L141.1,190.2 L143.5,186.1 L146.1,182.0 L149.0,178.0 L152.2,173.9
		L155.5,169.9 L159.2,165.8 L163.1,161.8 L167.2,157.9 L171.7,153.9 L176.4,150.0 L181.5,146.1 L186.8,142.3
		L192.5,138.5 L198.5,134.8 L204.9,131.1 L211.7,127.6 L218.8,124.1 L226.3,120.8 L234.2,117.5 L242.5,114.4
		L251.3,111.5 L260.4,108.8 L270.1,106.2 L280.1,103.9 L290.6,101.8 L301.6,100.1 L313.0,98.6 L324.8,97.5
		L337.1,96.8 L349.8,96.5 L362.8,96.7 L376.2,97.4 L389.9,98.6 L403.8,100.4 L417.9,102.9 L432.1,106.0
		L446.3,109.9 L460.4,114.5 L474.3,119.8 L487.8,125.9 L500.9,132.9 L513.4,140.5 L525.1,149.0 L535.9,158.2
		L545.7,168.1 L554.2,178.6 L561.4,189.6 L567.2,201.1 L571.4,213.0 L574.0,225.1 L575.0,237.4 L574.3,249.6
		L571.9,261.8 L567.9,273.7 L562.3,285.3 L555.3,296.4 L547.0,307.0 L537.4,317.0 L526.7,326.2 L515.1,334.8
		L502.7,342.6 L489.7,349.6 L476.2,355.9 L462.4,361.3 L448.3,366.0 L434.1,370.0 L419.9,373.2 L405.8,375.8
		L391.8,377.7 L378.1,379.0 L364.7,379.8 L351.6,380.0 L338.9,379.8 L326.5,379.1 L314.6,378.1 L303.2,376.7
		L292.1,374.9 L281.6,372.9 L271.5,370.6 L261.8,368.1 L252.5,365.4 L243.7,362.5 L235.4,359.4 L227.4,356.2
		L219.8,352.9 L212.6,349.4 L205.9,345.9 L199.4,342.2 L193.3,338.5 L187.6,334.8 L182.2,330.9 L177.1,327.1
		L172.3,323.1 L167.8,319.2 L163.6,315.2 L159.7,311.2 L156.0,307.2 L152.6,303.2 L149.5,299.1 L146.5,295.1
		L143.9,291.0 L141.4,286.9 L139.2,282.8 L137.1,278.8 L135.3,274.7 L133.7,270.6 L132.3,266.5 L131.1,262.4
		L130.1,258.3 L129.2,254.2 L128.6,250.1 L128.1,246.0 L127.9,241.9 L127.8,237.9 L127.9,233.8 L128.2,229.7
		L128.7,225.6 L129.4,221.5 L130.2,217.4 L131.3,213.3 L132.5,209.2 L134.0,205.1 L135.6,201.0 L137.5,196.9
		L139.6,192.9 L141.9,188.8 L144.4,184.7 L147.1,180.6 L150.1,176.6 L153.3,172.5 L156.7,168.5 L160.4,164.5
		L164.4,160.5 L168.7,156.5 L173.2,152.6 L178.1,148.7 L183.2,144.8 L188.7,141.0 L194.5,137.2 L200.6,133.6
		L207.1,129.9 L214.0,126.4 L221.3,123.0 L228.9,119.7 L237.0,116.5 L245.4,113.4 L254.3,110.6 L263.6,107.9
		L273.4,105.4 L283.6,103.2 L294.3,101.2 L305.4,99.5 L316.9,98.2 L328.9,97.2 L341.3,96.6 L354.1,96.5
		L367.3,96.8 L380.8,97.7 L394.5,99.2 L408.5,101.2 L422.7,103.9 L436.9,107.3 L451.0,111.3 L465.1,116.2
		L478.9,121.8 L492.3,128.2 L505.2,135.4 L517.4,143.3 L528.9,152.0 L539.3,161.4 L548.7,171.5 L556.8,182.2
		L563.5,193.4 L568.8,205.1 L572.5,217.1 L574.5,229.2 L574.9,241.5 L573.7,253.7 L570.7,265.8 L566.2,277.6
		L560.1,289.1 L552.7,300.0 L543.9,310.4 L533.9,320.2 L522.9,329.2 L511.0,337.5 L498.4,345.1 L485.2,351.8
		L471.6,357.8 L457.7,363.0 L443.5,367.4 L429.3,371.1 L415.1,374.1 L401.1,376.5 L387.2,378.2 L373.6,379.3
		L360.2,379.9 L347.3,380.0 L334.7,379.6 L322.5,378.8 L310.7,377.6 L299.4,376.1 L288.5,374.3 L278.1,372.2
		L268.1,369.8 L258.6,367.2 L249.5,364.4 L240.9,361.5 L232.6,358.4 L224.8,355.1 L217.4,351.7 L210.3,348.2
		L203.6,344.7 L197.3,341.0 L191.4,337.3 L185.8,333.5 L180.5,329.6 L175.5,325.7 L170.8,321.8 L166.4,317.9
		L162.3,313.9 L158.4,309.9 L154.9,305.9 L151.5,301.8 L148.5,297.8 L145.6,293.7 L143.0,289.6 L140.6,285.6
		L138.4,281.5 L136.5,277.4 L134.7,273.3 L133.2,269.2 L131.9,265.1 L130.7,261.0 L129.8,256.9 L129.0,252.8
		L128.4,248.8 L128.0,244.7 L127.8,240.6 L127.8,236.5 L128.0,232.4 L128.4,228.3 L128.9,224.2 L129.6,220.1
		L130.6,216.0 L131.7,211.9 L133.0,207.8 L134.5,203.7 L136.2,199.7 L138.2,195.6 L140.3,191.5 L142.7,187.4
		L145.3,183.3 L148.1,179.3 L151.1,175.2 L154.4,171.2 L158.0,167.2 L161.8,163.1 L165.8,159.2 L170.2,155.2
		L174.8,151.3 L179.8,147.4 L185.0,143.5 L190.6,139.7 L196.5,136.0 L202.8,132.3 L209.4,128.7 L216.4,125.2
		L223.8,121.8 L231.6,118.6 L239.7,115.4 L248.4,112.4 L257.4,109.6 L266.9,107.0 L276.8,104.6 L287.1,102.5
		L297.9,100.6 L309.2,99.0 L320.9,97.8 L333.0,97.0 L345.6,96.5 L358.5,96.6 L371.8,97.1 L385.4,98.1
		L399.2,99.8 L413.3,102.0 L427.4,104.9 L441.6,108.5 L455.8,112.9 L469.8,118.0 L483.4,123.9 L496.7,130.5
		L509.4,137.9 L521.4,146.2 L532.5,155.1 L542.6,164.8 L551.6,175.1 L559.2,185.9 L565.5,197.3 L570.2,209.1
		L573.4,221.1 L574.9,233.4 L574.7,245.6 L572.9,257.8 L569.4,269.8 L564.3,281.5 L557.8,292.8 L549.8,303.6
		L540.6,313.8 L530.3,323.3 L519.0,332.1 L506.9,340.1 L494.0,347.4 L480.7,353.9 L466.9,359.6 L452.9,364.6
		L438.8,368.7 L424.5,372.2 L410.4,375.0 L396.4,377.1 L382.6,378.6 L369.0,379.6 L355.8,380.0 L343.0,379.9
		L330.5,379.4 L318.5,378.5 L306.9,377.2 L295.7,375.5 L285.0,373.6 L274.7,371.4 L264.9,369.0 L255.5,366.3
		L246.6,363.5 L238.0,360.4 L229.9,357.3 L222.3,354.0 L215.0,350.6 L208.0,347.0 L201.5,343.4 L195.3,339.7
		L189.5,336.0 L183.9,332.2 L178.7,328.3 L173.9,324.4 L169.3,320.5 L165.0,316.5 L161.0,312.5 L157.2,308.5
		L153.7,304.5 L150.5,300.4 L147.5,296.4 L144.7,292.3 L142.2,288.3 L139.9,284.2 L137.8,280.1 L135.9,276.0
		L134.2,271.9 L132.7,267.8 L131.4,263.7 L130.4,259.7 L129.5,255.6 L128.8,251.5 L128.3,247.4 L127.9,243.3
		L127.8,239.2 L127.9,235.1 L128.1,231.0 L128.5,226.9 L129.1,222.8 L129.9,218.7 L130.9,214.6 L132.1,210.5
		L133.5,206.5 L135.1,202.4 L136.9,198.3 L138.9,194.2 L141.1,190.1 L143.5,186.0 L146.2,182.0 L149.1,177.9
		L152.2,173.9 L155.6,169.8 L159.2,165.8 L163.1,161.8 L167.3,157.8 L171.7,153.9 L176.5,150.0 L181.5,146.1
		L186.9,142.3 L192.6,138.5 L198.6,134.8 L205.0,131.1 L211.7,127.6 L218.8,124.1 L226.4,120.7 L234.3,117.5
		L242.6,114.4 L251.3,111.5 L260.5,108.7 L270.1,106.2 L280.2,103.9 L290.7,101.8 L301.7,100.0 L313.1,98.6
		L324.9,97.5 L337.2,96.8 L349.9,96.5 L362.9,96.7 L376.3,97.4 L390.0,98.6 L403.9,100.5 L418.0,102.9
		L432.2,106.1 L446.4,109.9 L460.5,114.5 L474.4,119.9 L488.0,126.0 L501.0,132.9 L513.5,140.6 L525.2,149.1
		L536.0,158.3 L545.8,168.2 L554.3,178.7 L561.5,189.7 L567.2,201.2 L571.5,213.1 L574.1,225.2 L575.0,237.5
		L574.3,249.8 L571.9,261.9 L567.9,273.8 L562.3,285.4 L555.3,296.5 L546.9,307.1 L537.3,317.0 L526.6,326.3
		L515.0,334.9 L502.6,342.7 L489.6,349.7 L476.1,355.9 L462.2,361.4 L448.2,366.0 L434.0,370.0 L419.8,373.2
		L405.7,375.8 L391.7,377.7 L378.0,379.0 L364.6,379.8 L351.5,380.0 L338.8,379.8 L326.4,379.1 L314.5,378.1
		L303.1,376.7 L292.1,374.9 L281.5,372.9 L271.4,370.6 L261.7,368.1 L252.5,365.4 L243.7,362.5 L235.3,359.4
		L227.3,356.2 L219.8,352.8 L212.6,349.4 L205.8,345.8 L199.4,342.2 L193.3,338.5 L187.6,334.7 L182.2,330.9
		L177.1,327.0 L172.3,323.1 L167.8,319.2 L163.6,315.2 L159.7,311.2 L156.0,307.2 L152.6,303.1 L149.4,299.1
		L146.5,295.0 L143.8,291.0 L141.4,286.9 L139.1,282.8 L137.1,278.7 L135.3,274.6 L133.7,270.5 L132.3,266.5
		L131.1,262.4 L130.0,258.3 L129.2,254.2 L128.6,250.1 L128.1,246.0 L127.9,241.9 L127.8,237.8 L127.9,233.7
		L128.2,229.6 L128.7,225.5 L129.4,221.4 L130.2,217.4 L131.3,213.3 L132.6,209.2 L134.0,205.1 L135.7,201.0
		L137.5,196.9 L139.6,192.8 L141.9,188.7 L144.4,184.7 L147.1,180.6 L150.1,176.6 L153.3,172.5 L156.8,168.5
		L160.5,164.5 L164.5,160.5 L168.7,156.5 L173.3,152.6 L178.1,148.7 L183.3,144.8 L188.8,141.0 L194.6,137.2
		L200.7,133.5 L207.2,129.9 L214.1,126.4 L221.3,122.9 L229.0,119.6 L237.0,116.4 L245.5,113.4 L254.4,110.5
		L263.7,107.8 L273.5,105.4 L283.7,103.1 L294.4,101.2 L305.5,99.5 L317.0,98.2 L329.0,97.2 L341.4,96.6
		L354.2,96.5 L367.4,96.9 L380.9,97.7 L394.7,99.2 L408.6,101.2 L422.8,103.9 L437.0,107.3 L451.2,111.4
		L465.2,116.2 L479.0,121.8 L492.4,128.2 L505.3,135.4 L517.5,143.4 L529.0,152.1 L539.4,161.5 L548.8,171.6
		L556.9,182.3 L563.6,193.5 L568.8,205.2 L572.5,217.2 L574.6,229.4 L574.9,241.6 L573.6,253.9 L570.7,265.9
		L566.1,277.7 L560.1,289.2 L552.6,300.1 L543.8,310.5 L533.8,320.2 L522.8,329.3 L510.9,337.6 L498.3,345.1
		L485.1,351.9 L471.5,357.8 L457.5,363.0 L443.4,367.5 L429.2,371.2 L415.0,374.2 L400.9,376.5 L387.1,378.2
		L373.4,379.3 L360.1,379.9 L347.2,380.0 L334.6,379.6 L322.4,378.8 L310.6,377.6 L299.3,376.1 L288.4,374.3
		L278.0,372.2 L268.1,369.8 L258.5,367.2 L249.4,364.4 L240.8,361.4 L232.6,358.3 L224.7,355.1 L217.3,351.7
		L210.3,348.2 L203.6,344.6 L197.3,341.0 L191.3,337.2 L185.7,333.4 L180.4,329.6 L175.4,325.7 L170.7,321.8
		L166.4,317.8 L162.2,313.8 L158.4,309.8 L154.8,305.8 L151.5,301.8 L148.4,297.7 L145.6,293.7 L143.0,289.6
		L140.6,285.5 L138.4,281.4 L136.5,277.3 L134.7,273.3 L133.2,269.2 L131.8,265.1 L130.7,261.0 L129.7,256.9
		L129.0,252.8 L128.4,248.7 L128.0,244.6 L127.8,240.5 L127.8,236.4 L128.0,232.3 L128.4,228.3 L128.9,224.2
		L129.6,220.1 L130.6,216.0 L131.7,211.9 L133.0,207.8 L134.5,203.7 L136.3,199.6 L138.2,195.5 L140.3,191.5
		L142.7,187.4 L145.3,183.3 L148.1,179.2 L151.1,175.2 L154.4,171.1 L158.0,167.1 L161.8,163.1 L165.9,159.1
		L170.2,155.2 L174.9,151.2 L179.8,147.3 L185.1,143.5 L190.7,139.7 L196.6,136.0 L202.8,132.3 L209.5,128.7
		L216.5,125.2 L223.9,121.8 L231.6,118.5 L239.8,115.4 L248.4,112.4 L257.5,109.6 L266.9,107.0 L276.9,104.6
		L287.2,102.5 L298.0,100.6 L309.3,99.0 L321.0,97.8 L333.1,97.0 L345.7,96.5 L358.6,96.6 L371.9,97.1
		L385.5,98.1 L399.3,99.8 L413.4,102.0 L427.6,105.0 L441.8,108.6 L455.9,112.9 L469.9,118.0 L483.6,123.9
		L496.8,130.6 L509.5,138.0 L521.5,146.2 L532.6,155.2 L542.7,164.9 L551.6,175.2 L559.3,186.0 L565.5,197.4
		L570.3,209.2 L573.4,221.2 L574.9,233.5 L574.7,245.7 L572.8,257.9 L569.3,269.9 L564.3,281.6 L557.7,292.9
		L549.8,303.7 L540.6,313.8 L530.2,323.4 L518.9,332.2 L506.8,340.2 L493.9,347.5 L480.6,354.0 L466.8,359.7
		L452.8,364.6 L438.6,368.8 L424.4,372.2 L410.3,375.0 L396.3,377.1 L382.5,378.6 L368.9,379.6 L355.7,380.0
		L342.9,379.9 L330.4,379.4 L318.4,378.5 L306.8,377.2 L295.6,375.5 L284.9,373.6 L274.6,371.4 L264.8,368.9
		L255.4,366.3 L246.5,363.4 L238.0,360.4 L229.9,357.2 L222.2,353.9 L214.9,350.5 L208.0,347.0 L201.4,343.4
		L195.2,339.7 L189.4,336.0 L183.9,332.2 L178.7,328.3 L173.8,324.4 L169.2,320.5 L164.9,316.5 L160.9,312.5
		L157.2,308.5 L153.7,304.5 L150.4,300.4 L147.4,296.4 L144.7,292.3 L142.2,288.2 L139.8,284.1 L137.7,280.1
		L135.9,276.0 L134.2,271.9 L132.7,267.8 L131.4,263.7 L130.4,259.6 L129.5,255.5 L128.8,251.4 L128.3,247.3
		L127.9,243.2 L127.8,239.2 L127.9,235.1 L128.1,231.0 L128.5,226.9 L129.1,222.8 L129.9,218.7 L130.9,214.6
		L132.1,210.5 L133.5,206.4 L135.1,202.3 L136.9,198.2 L138.9,194.2 L141.1,190.1 L143.5,186.0 L146.2,181.9
		L149.1,177.9 L152.2,173.8 L155.6,169.8 L159.2,165.8 L163.1,161.8 L167.3,157.8 L171.8,153.8 L176.5,149.9
		L181.6,146.0 L186.9,142.2 L192.6,138.4 L198.7,134.7 L205.0,131.1 L211.8,127.5 L218.9,124.1 L226.4,120.7
		L234.3,117.5 L242.7,114.4 L251.4,111.5 L260.6,108.7 L270.2,106.2 L280.3,103.8 L290.8,101.8 L301.8,100.0
		L313.2,98.6 L325.0,97.5 L337.3,96.8 L350.0,96.5 L363.0,96.7 L376.4,97.4 L390.1,98.6 L404.0,100.5
		L418.1,103.0 L432.3,106.1 L446.5,110.0 L460.6,114.6 L474.5,119.9 L488.1,126.1 L501.2,133.0 L513.6,140.7
		L525.3,149.2 L536.1,158.4 L545.8,168.3 L554.4,178.8 L561.5,189.8 L567.3,201.3 L571.5,213.2 L574.1,225.3
		L575.0,237.6 L574.2,249.9 L571.8,262.0 L567.8,273.9 L562.2,285.5 L555.2,296.6 L546.8,307.2 L537.2,317.1
		L526.5,326.4 L514.9,334.9 L502.5,342.7 L489.5,349.7 L476.0,356.0 L462.1,361.4 L448.0,366.1 L433.8,370.0
		L419.6,373.2 L405.5,375.8 L391.6,377.7 L377.9,379.0 L364.4,379.8 L351.4,380.0 L338.6,379.8 L326.3,379.1
		L314.4,378.1 L303.0,376.6 L292.0,374.9 L281.4,372.9 L271.3,370.6 L261.6,368.1 L252.4,365.3 L243.6,362.4
		L235.2,359.4 L227.2,356.1 L219.7,352.8 L212.5,349.4 L205.7,345.8 L199.3,342.2 L193.2,338.5 L187.5,334.7
		L182.1,330.9 L177.0,327.0 L172.2,323.1 L167.8,319.1 L163.6,315.2 L159.6,311.2 L156.0,307.1 L152.6,303.1
		L149.4,299.1 L146.5,295.0 L143.8,290.9 L141.4,286.9 L139.1,282.8 L137.1,278.7 L135.3,274.6 L133.7,270.5
		L132.3,266.4 L131.0,262.3 L130.0,258.2 L129.2,254.1 L128.6,250.1 L128.1,246.0 L127.9,241.9 L127.8,237.8
		L127.9,233.7 L128.2,229.6 L128.7,225.5 L129.4,221.4 L130.3,217.3 L131.3,213.2 L132.6,209.1 L134.0,205.0
		L135.7,201.0 L137.5,196.9 L139.6,192.8 L141.9,188.7 L144.4,184.6 L147.1,180.6 L150.1,176.5 L153.3,172.5
		L156.8,168.4 L160.5,164.4 L164.5,160.4 L168.8,156.5 L173.3,152.5 L178.2,148.6 L183.3,144.8 L188.8,140.9
		L194.6,137.2 L200.8,133.5 L207.3,129.9 L214.1,126.3 L221.4,122.9 L229.0,119.6 L237.1,116.4 L245.6,113.4
		L254.5,110.5 L263.8,107.8 L273.6,105.4 L283.8,103.1 L294.5,101.2 L305.6,99.5 L317.1,98.2 L329.1,97.2
		L341.5,96.6 L354.3,96.5 L367.5,96.9 L381.0,97.7 L394.8,99.2 L408.8,101.2 L422.9,103.9 L437.1,107.3
		L451.3,111.4 L465.3,116.3 L479.1,121.9 L492.5,128.3 L505.4,135.5 L517.7,143.5 L529.1,152.2 L539.5,161.6
		L548.8,171.7 L556.9,182.4 L563.6,193.7 L568.9,205.3 L572.5,217.3 L574.6,229.5 L574.9,241.7 L573.6,254.0
		L570.7,266.0 L566.1,277.8 L560.0,289.3 L552.5,300.2 L543.7,310.6 L533.7,320.3 L522.7,329.4 L510.8,337.7
		L498.2,345.2 L485.0,351.9 L471.4,357.9 L457.4,363.1 L443.3,367.5 L429.1,371.2 L414.9,374.2 L400.8,376.5
		L386.9,378.2 L373.3,379.3 L360.0,379.9 L347.0,380.0 L334.5,379.6 L322.3,378.8 L310.5,377.6 L299.2,376.1
		L288.4,374.3 L277.9,372.1 L268.0,369.8 L258.5,367.2 L249.4,364.4 L240.7,361.4 L232.5,358.3 L224.7,355.0
		L217.2,351.7 L210.2,348.2 L203.5,344.6 L197.2,340.9 L191.3,337.2 L185.7,333.4 L180.4,329.6 L175.4,325.7
		L170.7,321.7 L166.3,317.8 L162.2,313.8 L158.4,309.8 L154.8,305.8 L151.5,301.7 L148.4,297.7 L145.6,293.6
		L143.0,289.6 L140.6,285.5 L138.4,281.4 L136.5,277.3 L134.7,273.2 L133.2,269.1 L131.8,265.0 L130.7,261.0
		L129.7,256.9 L129.0,252.8 L128.4,248.7 L128.0,244.6 L127.8,240.5 L127.8,236.4 L128.0,232.3 L128.4,228.2
		L128.9,224.1 L129.7,220.0 L130.6,215.9 L131.7,211.9 L133.0,207.8 L134.6,203.7 L136.3,199.6 L138.2,195.5
		L140.4,191.4 L142.7,187.3 L145.3,183.3 L148.1,179.2 L151.2,175.2 L154.5,171.1 L158.0,167.1 L161.8,163.1
		L165.9,159.1 L170.3,155.1 L174.9,151.2 L179.9,147.3 L185.1,143.5 L190.7,139.7 L196.6,135.9 L202.9,132.3
		L209.5,128.7 L216.5,125.2 L223.9,121.8 L231.7,118.5 L239.9,115.4 L248.5,112.4 L257.6,109.6 L267.0,107.0
		L277.0,104.6 L287.3,102.4 L298.1,100.6 L309.4,99.0 L321.1,97.8 L333.3,97.0 L345.8,96.5 L358.7,96.6
		L372.0,97.1 L385.6,98.2 L399.5,99.8 L413.5,102.1 L427.7,105.0 L441.9,108.6 L456.0,113.0 L470.0,118.1
		L483.7,124.0 L496.9,130.6 L509.6,138.1 L521.6,146.3 L532.7,155.3 L542.8,164.9 L551.7,175.3 L559.3,186.1
		L565.6,197.5 L570.3,209.3 L573.4,221.4 L574.9,233.6 L574.7,245.9 L572.8,258.0 L569.3,270.0 L564.2,281.7
		L557.6,293.0 L549.7,303.8 L540.5,313.9 L530.1,323.4 L518.8,332.2 L506.6,340.3 L493.8,347.5 L480.5,354.0
		L466.7,359.7 L452.7,364.6 L438.5,368.8 L424.3,372.3 L410.1,375.0 L396.1,377.1 L382.3,378.6 L368.8,379.6
		L355.6,380.0 L342.8,379.9 L330.3,379.4 L318.3,378.4 L306.7,377.1 L295.5,375.5 L284.8,373.6 L274.5,371.4
		L264.7,368.9 L255.3,366.3 L246.4,363.4 L237.9,360.4 L229.8,357.2 L222.1,353.9 L214.8,350.5 L207.9,347.0
		L201.4,343.4 L195.2,339.7 L189.3,335.9 L183.8,332.1 L178.7,328.3 L173.8,324.4 L169.2,320.4 L164.9,316.5
		L160.9,312.5 L157.1,308.5 L153.7,304.4 L150.4,300.4 L147.4,296.3 L144.7,292.3 L142.1,288.2 L139.8,284.1
		L137.7,280.0 L135.8,275.9 L134.2,271.9 L132.7,267.8 L131.4,263.7 L130.3,259.6 L129.5,255.5 L128.8,251.4
		L128.3,247.3 L127.9,243.2 L127.8,239.1 L127.9,235.0 L128.1,230.9 L128.5,226.8 L129.1,222.7 L129.9,218.7
		L130.9,214.6 L132.1,210.5 L133.5,206.4 L135.1,202.3 L136.9,198.2 L138.9,194.1 L141.1,190.0 L143.6,186.0
		L146.2,181.9 L149.1,177.8 L152.3,173.8 L155.6,169.8 L159.3,165.7 L163.2,161.7 L167.3,157.8 L171.8,153.8
		L176.5,149.9 L181.6,146.0 L187.0,142.2 L192.7,138.4 L198.7,134.7 L205.1,131.0 L211.8,127.5 L219.0,124.0
		L226.5,120.7 L234.4,117.4 L242.7,114.4 L251.5,111.4 L260.7,108.7 L270.3,106.1 L280.4,103.8 L290.9,101.8
		L301.9,100.0 L313.3,98.6 L325.2,97.5 L337.4,96.8 L350.1,96.5 L363.2,96.7 L376.6,97.4 L390.2,98.6
		L404.2,100.5 L418.3,103.0 L432.5,106.1 L446.7,110.0 L460.8,114.6 L474.7,120.0 L488.2,126.1 L501.3,133.0
		L513.7,140.8 L525.4,149.2 L536.2,158.4 L545.9,168.3 L554.4,178.9 L561.6,189.9 L567.3,201.4 L571.5,213.3
		L574.1,225.5 L575.0,237.7 L574.2,250.0 L571.8,262.1 L567.8,274.0 L562.2,285.6 L555.1,296.7 L546.7,307.3
		L537.1,317.2 L526.4,326.5 L514.8,335.0 L502.4,342.8 L489.4,349.8 L475.9,356.0 L462.0,361.5 L447.9,366.1
		L433.7,370.1 L419.5,373.3 L405.4,375.8 L391.5,377.7 L377.8,379.0 L364.3,379.8 L351.2,380.0 L338.5,379.8
		L326.2,379.1 L314.3,378.0 L302.9,376.6 L291.9,374.9 L281.3,372.9 L271.2,370.6 L261.5,368.1 L252.3,365.3
		L243.5,362.4 L235.1,359.3 L227.2,356.1 L219.6,352.8 L212.5,349.3 L205.7,345.8 L199.3,342.1 L193.2,338.4
		L187.5,334.7 L182.1,330.8 L177.0,327.0 L172.2,323.0 L167.7,319.1 L163.5,315.1 L159.6,311.1 L155.9,307.1
		L152.5,303.1 L149.4,299.0 L146.5,295.0 L143.8,290.9 L141.3,286.8 L139.1,282.7 L137.1,278.7 L135.3,274.6
		L133.7,270.5 L132.2,266.4 L131.0,262.3 L130.0,258.2 L129.2,254.1 L128.6,250.0 L128.1,245.9 L127.9,241.8
		L127.8,237.7 L127.9,233.7 L128.2,229.6 L128.7,225.5 L129.4,221.4 L130.3,217.3 L131.3,213.2 L132.6,209.1
		L134.0,205.0 L135.7,200.9 L137.6,196.8 L139.6,192.8 L141.9,188.7 L144.4,184.6 L147.2,180.5 L150.1,176.5
		L153.4,172.4 L156.8,168.4 L160.5,164.4 L164.5,160.4 L168.8,156.4 L173.4,152.5 L178.2,148.6 L183.4,144.7
		L188.9,140.9 L194.7,137.2 L200.8,133.5 L207.3,129.8 L214.2,126.3 L221.5,122.9 L229.1,119.6 L237.2,116.4
		L245.6,113.3 L254.5,110.5 L263.9,107.8 L273.7,105.3 L283.9,103.1 L294.6,101.1 L305.7,99.5 L317.2,98.2
		L329.2,97.2 L341.6,96.6 L354.5,96.5 L367.6,96.9 L381.1,97.7 L394.9,99.2 L408.9,101.3 L423.0,104.0
		L437.2,107.4 L451.4,111.5 L465.5,116.3 L479.3,122.0 L492.7,128.4 L505.5,135.6 L517.8,143.5 L529.2,152.3
		L539.6,161.7 L548.9,171.8 L557.0,182.5 L563.7,193.8 L568.9,205.4 L572.6,217.4 L574.6,229.6 L574.9,241.8
		L573.6,254.1 L570.6,266.1 L566.1,277.9 L560.0,289.4 L552.4,300.3 L543.6,310.7 L533.6,320.4 L522.6,329.4
		L510.7,337.7 L498.1,345.2 L484.9,352.0 L471.2,357.9 L457.3,363.1 L443.1,367.5 L428.9,371.2 L414.8,374.2
		L400.7,376.5 L386.8,378.2 L373.2,379.3 L359.9,379.9 L346.9,380.0 L334.3,379.6 L322.2,378.8 L310.4,377.6
		L299.1,376.1 L288.3,374.2 L277.8,372.1 L267.9,369.7 L258.4,367.2 L249.3,364.4 L240.6,361.4 L232.4,358.3
		L224.6,355.0 L217.2,351.6 L210.1,348.1 L203.5,344.6 L197.2,340.9 L191.2,337.2 L185.6,333.4 L180.3,329.5
		L175.3,325.6 L170.7,321.7 L166.3,317.8 L162.2,313.8 L158.3,309.8 L154.8,305.7 L151.5,301.7 L148.4,297.7
		L145.5,293.6 L142.9,289.5 L140.6,285.4 L138.4,281.4 L136.4,277.3 L134.7,273.2 L133.2,269.1 L131.8,265.0
		L130.7,260.9 L129.7,256.8 L129.0,252.7 L128.4,248.6 L128.0,244.6 L127.8,240.5 L127.8,236.4 L128.0,232.3
		L128.4,228.2 L128.9,224.1 L129.7,220.0 L130.6,215.9 L131.7,211.8 L133.0,207.7 L134.6,203.6 L136.3,199.5
		L138.2,195.5 L140.4,191.4 L142.7,187.3 L145.3,183.2 L148.1,179.2 L151.2,175.1 L154.5,171.1 L158.0,167.1
		L161.9,163.0 L165.9,159.1 L170.3,155.1 L175.0,151.2 L179.9,147.3 L185.2,143.4 L190.8,139.6 L196.7,135.9
		L203.0,132.2 L209.6,128.6 L216.6,125.1 L224.0,121.8 L231.8,118.5 L240.0,115.3 L248.6,112.4 L257.6,109.6
		L267.1,106.9 L277.0,104.6 L287.4,102.4 L298.2,100.6 L309.5,99.0 L321.2,97.8 L333.4,97.0 L345.9,96.5
		L358.8,96.6 L372.1,97.1 L385.7,98.2 L399.6,99.8 L413.6,102.1 L427.8,105.0 L442.0,108.7 L456.2,113.0
		L470.1,118.1 L483.8,124.0 L497.1,130.7 L509.7,138.2 L521.7,146.4 L532.8,155.4 L542.9,165.0 L551.8,175.4
		L559.4,186.2 L565.6,197.6 L570.3,209.4 L573.4,221.5 L574.9,233.7 L574.7,246.0 L572.8,258.2 L569.3,270.2
		L564.2,281.8 L557.6,293.1 L549.6,303.9 L540.4,314.0 L530.0,323.5 L518.7,332.3 L506.5,340.3 L493.7,347.6
		L480.3,354.1 L466.6,359.8 L452.5,364.7 L438.4,368.8 L424.2,372.3 L410.0,375.1 L396.0,377.2 L382.2,378.7
		L368.7,379.6 L355.5,380.0 L342.7,379.9 L330.2,379.4 L318.2,378.4 L306.6,377.1 L295.4,375.5 L284.7,373.6
		L274.4,371.3 L264.6,368.9 L255.3,366.2 L246.3,363.4 L237.8,360.4 L229.7,357.2 L222.1,353.9 L214.8,350.5
		L207.9,346.9 L201.3,343.3 L195.1,339.6 L189.3,335.9 L183.8,332.1 L178.6,328.2 L173.7,324.3 L169.2,320.4
		L164.9,316.4 L160.9,312.4 L157.1,308.4 L153.6,304.4 L150.4,300.3 L147.4,296.3 L144.6,292.2 L142.1,288.1
		L139.8,284.1 L137.7,280.0 L135.8,275.9 L134.2,271.8 L132.7,267.7 L131.4,263.6 L130.3,259.5 L129.5,255.5
		L128.8,251.4 L128.3,247.3 L127.9,243.2 L127.8,239.1 L127.9,235.0 L128.1,230.9 L128.5,226.8 L129.1,222.7
		L130.0,218.6 L131.0,214.5 L132.1,210.4 L133.5,206.3 L135.1,202.3 L136.9,198.2 L138.9,194.1 L141.1,190.0
		L143.6,185.9 L146.2,181.9 L149.1,177.8 L152.3,173.8 L155.7,169.7 L159.3,165.7 L163.2,161.7 L167.4,157.7
		L171.8,153.8 L176.6,149.9 L181.6,146.0 L187.0,142.2 L192.7,138.4 L198.8,134.7 L205.2,131.0 L211.9,127.5
		L219.0,124.0 L226.6,120.6 L234.5,117.4 L242.8,114.3 L251.6,111.4 L260.8,108.7 L270.4,106.1 L280.5,103.8
		L291.0,101.8 L302.0,100.0 L313.4,98.6 L325.3,97.5 L337.5,96.8 L350.2,96.5 L363.3,96.7 L376.7,97.4
		L390.4,98.7 L404.3,100.5 L418.4,103.0 L432.6,106.2 L446.8,110.0 L460.9,114.6 L474.8,120.0 L488.3,126.2
		L501.4,133.1 L513.8,140.8 L525.5,149.3 L536.3,158.5 L546.0,168.4 L554.5,179.0 L561.7,190.0 L567.4,201.6
		L571.5,213.4 L574.1,225.6 L575.0,237.8 L574.2,250.1 L571.8,262.2 L567.7,274.1 L562.1,285.7 L555.0,296.8
		L546.6,307.3 L537.0,317.3 L526.3,326.6 L514.7,335.1 L502.3,342.9 L489.3,349.9 L475.7,356.1 L461.9,361.5
		L447.8,366.2 L433.6,370.1 L419.4,373.3 L405.3,375.8 L391.3,377.7 L377.6,379.0 L364.2,379.8 L351.1,380.0
		L338.4,379.8 L326.1,379.1 L314.2,378.0 L302.8,376.6 L291.8,374.9 L281.2,372.8 L271.1,370.6 L261.4,368.0
		L252.2,365.3 L243.4,362.4 L235.1,359.3 L227.1,356.1 L219.6,352.7 L212.4,349.3 L205.6,345.7 L199.2,342.1
		L193.1,338.4 L187.4,334.6 L182.0,330.8 L176.9,326.9 L172.2,323.0 L167.7,319.1 L163.5,315.1 L159.6,311.1
		L155.9,307.1 L152.5,303.0 L149.4,299.0 L146.4,294.9 L143.8,290.9 L141.3,286.8 L139.1,282.7 L137.1,278.6
		L135.2,274.5 L133.6,270.4 L132.2,266.3 L131.0,262.3 L130.0,258.2 L129.2,254.1 L128.6,250.0 L128.1,245.9
		L127.9,241.8 L127.8,237.7 L127.9,233.6 L128.2,229.5 L128.7,225.4 L129.4,221.3 L130.3,217.2 L131.3,213.2
		L132.6,209.1 L134.0,205.0 L135.7,200.9 L137.6,196.8 L139.6,192.7 L141.9,188.6 L144.5,184.6 L147.2,180.5
		L150.2,176.4 L153.4,172.4 L156.9,168.4 L160.6,164.4 L164.6,160.4 L168.8,156.4 L173.4,152.5 L178.3,148.5
		L183.4,144.7 L188.9,140.9 L194.7,137.1 L200.9,133.4 L207.4,129.8 L214.3,126.3 L221.5,122.9 L229.2,119.5
		L237.2,116.4 L245.7,113.3 L254.6,110.5 L264.0,107.8 L273.7,105.3 L284.0,103.1 L294.6,101.1 L305.8,99.5
		L317.3,98.1 L329.3,97.2 L341.8,96.6 L354.6,96.5 L367.8,96.9 L381.3,97.8 L395.0,99.2 L409.0,101.3
		L423.2,104.0 L437.4,107.4 L451.5,111.5 L465.6,116.4 L479.4,122.0 L492.8,128.4 L505.7,135.6 L517.9,143.6
		L529.3,152.3 L539.7,161.8 L549.0,171.9 L557.1,182.6 L563.8,193.9 L569.0,205.5 L572.6,217.5 L574.6,229.7
		L574.9,241.9 L573.6,254.2 L570.6,266.3 L566.0,278.1 L559.9,289.5 L552.4,300.4 L543.5,310.8 L533.5,320.5
		L522.5,329.5 L510.6,337.8 L498.0,345.3 L484.8,352.0 L471.1,358.0 L457.2,363.2 L443.0,367.6 L428.8,371.2
		L414.6,374.2 L400.6,376.5 L386.7,378.2 L373.1,379.3 L359.8,379.9 L346.8,380.0 L334.2,379.6 L322.1,378.8
		L310.3,377.6 L299.0,376.1 L288.2,374.2 L277.8,372.1 L267.8,369.7 L258.3,367.1 L249.2,364.3 L240.6,361.4
		L232.3,358.2 L224.5,355.0 L217.1,351.6 L210.1,348.1 L203.4,344.5 L197.1,340.9 L191.2,337.1 L185.6,333.3
		L180.3,329.5 L175.3,325.6 L170.6,321.7 L166.2,317.7 L162.1,313.7 L158.3,309.7 L154.7,305.7 L151.4,301.7
		L148.4,297.6 L145.5,293.6 L142.9,289.5 L140.5,285.4 L138.4,281.3 L136.4,277.2 L134.7,273.2 L133.1,269.1
		L131.8,265.0 L130.7,260.9 L129.7,256.8 L129.0,252.7 L128.4,248.6 L128.0,244.5 L127.8,240.4 L127.8,236.3
		L128.0,232.2 L128.4,228.1 L128.9,224.1 L129.7,220.0 L130.6,215.9 L131.7,211.8 L133.1,207.7 L134.6,203.6
		L136.3,199.5 L138.2,195.4 L140.4,191.3 L142.8,187.3 L145.4,183.2 L148.2,179.1 L151.2,175.1 L154.5,171.0
		L158.1,167.0 L161.9,163.0 L166.0,159.0 L170.3,155.1 L175.0,151.1 L180.0,147.2 L185.2,143.4 L190.8,139.6
		L196.7,135.9 L203.0,132.2 L209.7,128.6 L216.7,125.1 L224.1,121.7 L231.8,118.5 L240.0,115.3 L248.7,112.3
		L257.7,109.5 L267.2,106.9 L277.1,104.5 L287.5,102.4 L298.3,100.5 L309.6,99.0 L321.3,97.8 L333.5,96.9
		L346.0,96.5 L359.0,96.6 L372.3,97.1 L385.9,98.2 L399.7,99.8 L413.8,102.1 L427.9,105.1 L442.1,108.7
		L456.3,113.1 L470.3,118.2 L483.9,124.1 L497.2,130.8 L509.8,138.2 L521.8,146.5 L532.9,155.4 L542.9,165.1
		L551.9,175.4 L559.5,186.3 L565.7,197.7 L570.4,209.5 L573.4,221.6 L574.9,233.8 L574.7,246.1 L572.8,258.3
		L569.2,270.3 L564.1,281.9 L557.5,293.2 L549.5,304.0 L540.3,314.1 L529.9,323.6 L518.6,332.4 L506.4,340.4
		L493.6,347.7 L480.2,354.1 L466.4,359.8 L452.4,364.7 L438.2,368.9 L424.0,372.3 L409.9,375.1 L395.9,377.2
		L382.1,378.7 L368.6,379.6 L355.4,380.0 L342.5,379.9 L330.1,379.4 L318.1,378.4 L306.5,377.1 L295.3,375.5
		L284.6,373.5 L274.4,371.3 L264.6,368.9 L255.2,366.2 L246.3,363.4 L237.8,360.3 L229.7,357.2 L222.0,353.9
		L214.7,350.4 L207.8,346.9 L201.3,343.3 L195.1,339.6 L189.2,335.9 L183.7,332.0 L178.6,328.2 L173.7,324.3
		L169.1,320.4 L164.8,316.4 L160.8,312.4 L157.1,308.4 L153.6,304.4 L150.4,300.3 L147.4,296.3 L144.6,292.2
		L142.1,288.1 L139.8,284.0 L137.7,280.0 L135.8,275.9 L134.1,271.8 L132.7,267.7 L131.4,263.6 L130.3,259.5
		L129.4,255.4 L128.8,251.3 L128.2,247.2 L127.9,243.1 L127.8,239.0 L127.9,235.0 L128.1,230.9 L128.5,226.8
		L129.2,222.7 L130.0,218.6 L131.0,214.5 L132.2,210.4 L133.5,206.3 L135.1,202.2 L136.9,198.1 L138.9,194.1
		L141.2,190.0 L143.6,185.9 L146.3,181.8 L149.2,177.8 L152.3,173.7 L155.7,169.7 L159.3,165.7 L163.2,161.7
		L167.4,157.7 L171.9,153.7 L176.6,149.8 L181.7,145.9 L187.1,142.1 L192.8,138.3 L198.8,134.6 L205.2,131.0
		L212.0,127.4 L219.1,124.0 L226.6,120.6 L234.6,117.4 L242.9,114.3 L251.7,111.4 L260.9,108.6 L270.5,106.1
		L280.6,103.8 L291.1,101.7 L302.1,100.0 L313.5,98.5 L325.4,97.5 L337.7,96.8 L350.3,96.5 L363.4,96.7
		L376.8,97.4 L390.5,98.7 L404.4,100.5 L418.5,103.0 L432.7,106.2 L446.9,110.1 L461.0,114.7 L474.9,120.1
		L488.4,126.2 L501.5,133.2 L513.9,140.9 L525.6,149.4 L536.4,158.6 L546.1,168.5 L554.6,179.1 L561.7,190.1
		L567.4,201.7 L571.6,213.5 L574.1,225.7 L575.0,237.9 L574.2,250.2 L571.8,262.3 L567.7,274.2 L562.1,285.8
		L555.0,296.9 L546.6,307.4 L536.9,317.4 L526.2,326.6 L514.6,335.2 L502.2,342.9 L489.1,349.9 L475.6,356.1
		L461.8,361.5 L447.7,366.2 L433.5,370.1 L419.3,373.3 L405.2,375.9 L391.2,377.7 L377.5,379.0 L364.1,379.8
		L351.0,380.0 L338.3,379.8 L326.0,379.1 L314.1,378.0 L302.7,376.6 L291.7,374.9 L281.1,372.8 L271.0,370.5
		L261.4,368.0 L252.1,365.3 L243.3,362.4 L235.0,359.3 L227.0,356.1 L219.5,352.7 L212.3,349.3 L205.6,345.7
		L199.1,342.1 L193.1,338.4 L187.4,334.6 L182.0,330.8 L176.9,326.9 L172.1,323.0 L167.6,319.0 L163.5,315.0
		L159.5,311.0 L155.9,307.0 L152.5,303.0 L149.3,298.9 L146.4,294.9 L143.7,290.8 L141.3,286.7 L139.1,282.7
		L137.0,278.6 L135.2,274.5 L133.6,270.4 L132.2,266.3 L131.0,262.2 L130.0,258.1 L129.2,254.0 L128.6,249.9
		L128.1,245.9 L127.9,241.8  '/></g>
	</g>
	<g id="gnuplot_plot_2" ><title>star</title>
<g fill="none" color="black" stroke="currentColor" stroke-width="1.00" stroke-linecap="butt" stroke-linejoin="miter">
	<g transform="translate(113.4,76.6)" stroke="none" fill="black" font-family="Arial" font-size="12.00"  text-anchor="end">
		<text><tspan font-family="Arial" >star</tspan></text>
	</g>
</g>
<g fill="none" color="black" stroke="currentColor" stroke-width="1.00" stroke-linecap="butt" stroke-linejoin="miter">
	<use xlink:href='#gpPt4' transform='translate(239.6,238.2) scale(4.50)' color='rgb(  0, 158, 115)'/>
	<use xlink:href='#gpPt4' transform='translate(142.8,72.1) scale(4.50)' color='rgb(  0, 158, 115)'/>
</g>
	</g>
<g fill="none" color="#FFFFFF" stroke="rgb(  0, 158, 115)" stroke-width="2.00" stroke-linecap="butt" stroke-linejoin="miter">
</g>
<g fill="none" color="black" stroke="currentColor" stroke-width="2.00" stroke-linecap="butt" stroke-linejoin="miter">
</g>
<g fill="none" color="black" stroke="black" stroke-width="1.00" stroke-linecap="butt" stroke-linejoin="miter">
</g>
<g fill="none" color="black" stroke="currentColor" stroke-width="1.00" stroke-linecap="butt" stroke-linejoin="miter">
	<path stroke='black'  d='M71.9,54.1 L71.9,422.4 L575.0,422.4 L575.0,54.1 L71.9,54.1 Z  '/></g>
<g fill="none" color="black" stroke="currentColor" stroke-width="1.00" stroke-linecap="butt" stroke-linejoin="miter">
</g>
</g>
</svg>

